CAC_Project/TEST_BENCH/Test1/collision_avoidance_car_tb.vcd
$date
    Oct 13, 2025  00:24:20
$end
$version
    TOOL:	ncsim(64)	15.20-s084
$end
$timescale
    1 ps
$end

$scope module collision_avoidance_car_tb $end
$var reg       1 !    clk  $end
$var reg       1 "    rst  $end
$var reg       1 #    front_obstacle_detected  $end
$var reg       1 $    left_obstacle_detected  $end
$var reg       1 %    right_obstacle_detected  $end
$var reg       1 &    front_obstacle_slow  $end
$var reg       1 '    lane_clear_left  $end
$var reg       1 (    lane_clear_right  $end
$var reg       1 )    destination_reached  $end
$var reg       2 *    speed_limit_zone [1:0] $end
$var wire      2 +    acceleration [1:0] $end
$var wire      2 ,    steering [1:0] $end
$var wire      2 -    indicators [1:0] $end
$var wire      8 .    current_speed_out [7:0] $end
$var wire     32 /    distance_travelled_out [31:0] $end
$var wire     32 0    total_power_consumed_out [31:0] $end
$var integer  32 1    test_num  $end
$var integer  32 2    i  $end
$var integer  32 3    j  $end
$var integer  32 4    k  $end

$scope module dut $end
$var wire      1 5    clk  $end
$var wire      1 6    rst  $end
$var wire      1 7    front_obstacle_detected  $end
$var wire      1 8    left_obstacle_detected  $end
$var wire      1 9    right_obstacle_detected  $end
$var wire      1 :    front_obstacle_slow  $end
$var wire      1 ;    lane_clear_left  $end
$var wire      1 <    lane_clear_right  $end
$var wire      1 =    destination_reached  $end
$var wire      2 >    speed_limit_zone [1:0] $end
$var reg       2 ?    acceleration [1:0] $end
$var reg       2 @    steering [1:0] $end
$var reg       2 A    indicators [1:0] $end
$var reg       8 B    current_speed_out [7:0] $end
$var reg      32 C    distance_travelled_out [31:0] $end
$var reg      32 D    total_power_consumed_out [31:0] $end
$var reg       2 E    next_acceleration [1:0] $end
$var reg       2 F    next_steering [1:0] $end
$var reg       2 G    next_indicators [1:0] $end
$var reg       1 H    front_obstacle_slow_reg  $end
$var reg       1 I    lane_clear_left_reg  $end
$var reg       1 J    lane_clear_right_reg  $end
$var reg       1 K    destination_reached_reg  $end
$var reg       2 L    speed_limit_zone_reg [1:0] $end
$var parameter 32 M    STATE_WIDTH  $end
$var parameter 11 N    IDLE  $end
$var parameter 11 O    ACCELERATE_FWD  $end
$var parameter 11 P    CRUISE  $end
$var parameter 11 Q    DECELERATE  $end
$var parameter 11 R    PREPARE_LANE_CHANGE_LEFT  $end
$var parameter 11 S    LANE_CHANGE_LEFT  $end
$var parameter 11 T    PREPARE_LANE_CHANGE_RIGHT  $end
$var parameter 11 U    LANE_CHANGE_RIGHT  $end
$var parameter 11 V    AVOID_OBSTACLE_STOP  $end
$var parameter 11 W    REVERSE  $end
$var parameter 11 X    STOPPED  $end
$var reg      11 Y    current_state [10:0] $end
$var reg      11 Z    next_state [10:0] $end
$var reg       3 [    front_obstacle_history [2:0] $end
$var reg       3 \    left_obstacle_history [2:0] $end
$var reg       3 ]    right_obstacle_history [2:0] $end
$var wire      1 ^    persistent_front_obstacle  $end
$var wire      1 _    persistent_left_obstacle  $end
$var wire      1 `    persistent_right_obstacle  $end
$var reg       8 a    current_speed [7:0] $end
$var wire      8 b    target_speed [7:0] $end
$var reg      32 c    distance_travelled [31:0] $end
$var wire      8 d    speed_limit [7:0] $end
$var wire      8 e    speed_error [7:0] $end
$var wire      9 f    signed_speed_error [8:0] $end
$var wire      8 g    throttle_value [7:0] $end
$var wire      1 h    speed_is_zero  $end
$var wire      1 i    target_speed_reached  $end
$var reg      16 j    integral_error_accumulator [15:0] $end
$var wire     16 k    instantaneous_power [15:0] $end
$var reg      32 l    total_power_consumed [31:0] $end
$upscope $end

$upscope $end

$enddefinitions $end
$dumpvars
b10000000000 X
b1000000000 W
b100000000 V
b10000000 U
b1000000 T
b100000 S
b10000 R
b1000 Q
b100 P
b10 O
b1 N
b1011 M
0!
1"
0#
0$
0%
0&
0'
0(
0)
b0 *
b1 +
b0 ,
b0 -
b0 .
b0 /
b0 0
b1 1
bx 2
bx 3
bx 4
05
16
07
08
09
0:
0;
0<
0=
b0 >
b1 ?
b0 @
b0 A
b0 B
b0 C
b0 D
b1 E
b0 F
b0 G
0H
0I
0J
0K
b0 L
b1 Y
b10 Z
b0 [
b0 \
b0 ]
0^
0_
0`
b0 a
b0 b
b0 c
b11110 d
b0 e
b0 f
b0 g
1h
1i
b0 j
b0 k
b0 l
$end
#5000
1!
15
#10000
0!
05
#15000
1!
15
#20000
0!
05
#25000
1!
15
#30000
0!
05
#35000
1!
15
#40000
0!
05
#45000
1!
0"
06
15
b10 Y
b100 Z
b10 E
b11110 b
b11110 e
b11110 f
0i
b10 Z
#50000
0!
05
#55000
1!
15
b10 ?
b10010110 g
b10 +
#60000
0!
05
#65000
1!
b0 2
1#
17
15
b1001 a
b1 [
0h
b10101000110 k
b10101 f
b10101 e
#70000
0!
05
#75000
1!
15
b1001 B
b10010 a
b1001 c
b10101000110 l
b11 [
b101010001100 k
b1100 f
b1100 e
b1001 .
b1100100 g
b11100001000 k
#80000
0!
05
#85000
1!
b1 2
0#
07
15
b10010 B
b1001 C
b10101000110 D
b11000 a
b11011 c
b110001001110 l
b110 [
b100101100000 k
b110 f
b110 e
b10101000110 0
b1001 /
b10010 .
#90000
0!
05
#95000
1!
15
b11000 B
b11011 C
b110001001110 D
b11110 a
b110011 c
b1010110101110 l
b100 [
1i
b101110111000 k
b0 f
b0 e
b110001001110 0
b11011 /
b11000 .
b100 Z
b110010 g
b10111011100 k
#100000
0!
05
#105000
1!
b10 2
1#
17
15
b11110 B
b110011 C
b1010110101110 D
b100 Y
b100001 a
b1010001 c
b1101110001010 l
b1 [
b1 E
b11001110010 k
b111111101 f
b0 b
b1010110101110 0
b110011 /
b11110 .
b111011111 f
#110000
0!
05
#115000
1!
15
b1 ?
b100001 B
b1010001 C
b1101110001010 D
b100100 a
b1110010 c
b10000111111100 l
b1111111111011111 j
b11 [
b11100001000 k
b111011100 f
b0 g
b1101110001010 0
b1010001 /
b100001 .
b1 +
b0 k
#120000
0!
05
#125000
1!
b11 2
0#
07
15
b100100 B
b1110010 C
b10000111111100 D
b10010110 c
b1111111110111011 j
b110 [
b10000111111100 0
b1110010 /
b100100 .
#130000
0!
05
#135000
1!
15
b10010110 C
b10111010 c
b1111111110010111 j
b100 [
b10010110 /
#140000
0!
05
#145000
1!
b100 2
1#
17
15
b10111010 C
b11011110 c
b1111111101110011 j
b1 [
b10111010 /
#150000
0!
05
#155000
1!
15
b11011110 C
b100000010 c
b1111111101001111 j
b11 [
b11011110 /
#160000
0!
05
#165000
1!
b101 2
0#
07
15
b100000010 C
b100100110 c
b1111111100101011 j
b110 [
b100000010 /
#170000
0!
05
#175000
1!
15
b100100110 C
b101001010 c
b1111111100000111 j
b100 [
b100100110 /
#180000
0!
05
#185000
1!
b110 2
1#
17
15
b101001010 C
b101101110 c
b1111111011100011 j
b1 [
b101001010 /
#190000
0!
05
#195000
1!
15
b101101110 C
b110010010 c
b1111111010111111 j
b11 [
b101101110 /
#200000
0!
05
#205000
1!
b111 2
0#
07
15
b110010010 C
b110110110 c
b1111111010011011 j
b110 [
b110010010 /
#210000
0!
05
#215000
1!
15
b110110110 C
b111011010 c
b1111111001110111 j
b100 [
b110110110 /
#220000
0!
05
#225000
1!
b1000 2
1#
17
15
b111011010 C
b111111110 c
b1111111001010011 j
b1 [
b111011010 /
#230000
0!
05
#235000
1!
15
b111111110 C
b1000100010 c
b1111111000101111 j
b11 [
b111111110 /
#240000
0!
05
#245000
1!
b1001 2
0#
07
15
b1000100010 C
b1001000110 c
b1111111000001011 j
b110 [
b1000100010 /
#250000
0!
05
#255000
1!
15
b1001000110 C
b1001101010 c
b1111110111100111 j
b100 [
b1001000110 /
#260000
0!
05
#265000
1!
b1010 2
b0 2
1$
18
15
b1001101010 C
b1010001110 c
b1111110111000011 j
b0 [
b1 \
b1001101010 /
#270000
0!
05
#275000
1!
15
b1010001110 C
b1010110010 c
b1111110110011111 j
b11 \
b1010001110 /
#280000
0!
05
#285000
1!
b1 2
0$
08
15
b1010110010 C
b1011010110 c
b1111110101111011 j
b110 \
b1010110010 /
#290000
0!
05
#295000
1!
15
b1011010110 C
b1011111010 c
b1111110101010111 j
b100 \
b1011010110 /
#300000
0!
05
#305000
1!
b10 2
1$
18
15
b1011111010 C
b1100011110 c
b1111110100110011 j
b1 \
b1011111010 /
#310000
0!
05
#315000
1!
15
b1100011110 C
b1101000010 c
b1111110100001111 j
b11 \
b1100011110 /
#320000
0!
05
#325000
1!
b11 2
0$
08
15
b1101000010 C
b1101100110 c
b1111110011101011 j
b110 \
b1101000010 /
#330000
0!
05
#335000
1!
15
b1101100110 C
b1110001010 c
b1111110011000111 j
b100 \
b1101100110 /
#340000
0!
05
#345000
1!
b100 2
1$
18
15
b1110001010 C
b1110101110 c
b1111110010100011 j
b1 \
b1110001010 /
#350000
0!
05
#355000
1!
15
b1110101110 C
b1111010010 c
b1111110001111111 j
b11 \
b1110101110 /
#360000
0!
05
#365000
1!
b101 2
0$
08
15
b1111010010 C
b1111110110 c
b1111110001011011 j
b110 \
b1111010010 /
#370000
0!
05
#375000
1!
15
b1111110110 C
b10000011010 c
b1111110000110111 j
b100 \
b1111110110 /
#380000
0!
05
#385000
1!
b110 2
1$
18
15
b10000011010 C
b10000111110 c
b1111110000010011 j
b1 \
b10000011010 /
#390000
0!
05
#395000
1!
15
b10000111110 C
b10001100010 c
b1111101111101111 j
b11 \
b10000111110 /
#400000
0!
05
#405000
1!
b111 2
0$
08
15
b10001100010 C
b10010000110 c
b1111101111001011 j
b110 \
b10001100010 /
#410000
0!
05
#415000
1!
15
b10010000110 C
b10010101010 c
b1111101110100111 j
b100 \
b10010000110 /
#420000
0!
05
#425000
1!
b1000 2
1$
18
15
b10010101010 C
b10011001110 c
b1111101110000011 j
b1 \
b10010101010 /
#430000
0!
05
#435000
1!
15
b10011001110 C
b10011110010 c
b1111101101011111 j
b11 \
b10011001110 /
#440000
0!
05
#445000
1!
b1001 2
0$
08
15
b10011110010 C
b10100010110 c
b1111101100111011 j
b110 \
b10011110010 /
#450000
0!
05
#455000
1!
15
b10100010110 C
b10100111010 c
b1111101100010111 j
b100 \
b10100010110 /
#460000
0!
05
#465000
1!
b1010 2
b0 2
1%
19
15
b10100111010 C
b10101011110 c
b1111101011110011 j
b0 \
b1 ]
b10100111010 /
#470000
0!
05
#475000
1!
15
b10101011110 C
b10110000010 c
b1111101011001111 j
b11 ]
b10101011110 /
#480000
0!
05
#485000
1!
b1 2
0%
09
15
b10110000010 C
b10110100110 c
b1111101010101011 j
b110 ]
b10110000010 /
#490000
0!
05
#495000
1!
15
b10110100110 C
b10111001010 c
b1111101010000111 j
b100 ]
b10110100110 /
#500000
0!
05
#505000
1!
b10 2
1%
19
15
b10111001010 C
b10111101110 c
b1111101001100011 j
b1 ]
b10111001010 /
#510000
0!
05
#515000
1!
15
b10111101110 C
b11000010010 c
b1111101000111111 j
b11 ]
b10111101110 /
#520000
0!
05
#525000
1!
b11 2
0%
09
15
b11000010010 C
b11000110110 c
b1111101000011011 j
b110 ]
b11000010010 /
#530000
0!
05
#535000
1!
15
b11000110110 C
b11001011010 c
b1111100111110111 j
b100 ]
b11000110110 /
#540000
0!
05
#545000
1!
b100 2
1%
19
15
b11001011010 C
b11001111110 c
b1111100111010011 j
b1 ]
b11001011010 /
#550000
0!
05
#555000
1!
15
b11001111110 C
b11010100010 c
b1111100110101111 j
b11 ]
b11001111110 /
#560000
0!
05
#565000
1!
b101 2
0%
09
15
b11010100010 C
b11011000110 c
b1111100110001011 j
b110 ]
b11010100010 /
#570000
0!
05
#575000
1!
15
b11011000110 C
b11011101010 c
b1111100101100111 j
b100 ]
b11011000110 /
#580000
0!
05
#585000
1!
b110 2
1%
19
15
b11011101010 C
b11100001110 c
b1111100101000011 j
b1 ]
b11011101010 /
#590000
0!
05
#595000
1!
15
b11100001110 C
b11100110010 c
b1111100100011111 j
b11 ]
b11100001110 /
#600000
0!
05
#605000
1!
b111 2
0%
09
15
b11100110010 C
b11101010110 c
b1111100011111011 j
b110 ]
b11100110010 /
#610000
0!
05
#615000
1!
15
b11101010110 C
b11101111010 c
b1111100011010111 j
b100 ]
b11101010110 /
#620000
0!
05
#625000
1!
b1000 2
1%
19
15
b11101111010 C
b11110011110 c
b1111100010110011 j
b1 ]
b11101111010 /
#630000
0!
05
#635000
1!
15
b11110011110 C
b11111000010 c
b1111100010001111 j
b11 ]
b11110011110 /
#640000
0!
05
#645000
1!
b1001 2
0%
09
15
b11111000010 C
b11111100110 c
b1111100001101011 j
b110 ]
b11111000010 /
#650000
0!
05
#655000
1!
15
b11111100110 C
b100000001010 c
b1111100001000111 j
b100 ]
b11111100110 /
#660000
0!
05
#665000
1!
b1010 2
b0 2
1&
1:
15
b100000001010 C
b100000101110 c
b1111100000100011 j
b0 ]
1H
b1000 Z
b100000001010 /
#670000
0!
05
#675000
1!
15
b100000101110 C
b1000 Y
b100001010010 c
b1111011111111111 j
b0 E
b100000101110 /
#680000
0!
05
#685000
1!
b1 2
0&
0:
15
b0 ?
b100001010010 C
b100001110110 c
b0 j
0H
b10 Z
b100001010010 /
b0 +
#690000
0!
05
#695000
1!
15
b100001110110 C
b10 Y
b100010 a
b100010011010 c
b100 Z
b1 E
b10 E
b111011110 f
b11110 b
b100001110110 /
b111111100 f
#700000
0!
05
#705000
1!
b10 2
1&
1:
15
b10 ?
b100010 B
b100010011010 C
b100 Y
b100000 a
b100010111100 c
1H
b1000 Z
b1 E
b111111110 f
b0 b
b110010 g
b100010011010 /
b100010 .
b10 +
b11001000000 k
b111100000 f
#710000
0!
05
#715000
1!
15
b1 ?
b100000 B
b100010111100 C
b1000 Y
b100011 a
b100011011100 c
b10100000111100 l
b1111111111100000 j
b0 E
b11011010110 k
b111011101 f
b0 g
b100010111100 /
b100000 .
b1 +
b0 k
#720000
0!
05
#725000
1!
b11 2
0&
0:
15
b0 ?
b100011 B
b100011011100 C
b10100000111100 D
b100011111111 c
b0 j
0H
b10 Z
b10100000111100 0
b100011011100 /
b100011 .
b0 +
#730000
0!
05
#735000
1!
15
b100011111111 C
b10 Y
b100001 a
b100100100010 c
b100 Z
b1 E
b10 E
b111011111 f
b11110 b
b100011111111 /
b111111101 f
#740000
0!
05
#745000
1!
b100 2
1&
1:
15
b10 ?
b100001 B
b100100100010 C
b100 Y
b11111 a
b100101000011 c
1H
b1000 Z
b1 E
b111111111 f
b0 b
b110010 g
b100100100010 /
b100001 .
b10 +
b11000001110 k
b111100001 f
#750000
0!
05
#755000
1!
15
b1 ?
b11111 B
b100101000011 C
b1000 Y
b100010 a
b100101100010 c
b10111001001010 l
b1111111111100001 j
b0 E
b11010100100 k
b111011110 f
b0 g
b100101000011 /
b11111 .
b1 +
b0 k
#760000
0!
05
#765000
1!
b101 2
0&
0:
15
b0 ?
b100010 B
b100101100010 C
b10111001001010 D
b100110000100 c
b0 j
0H
b10 Z
b10111001001010 0
b100101100010 /
b100010 .
b0 +
#770000
0!
05
#775000
1!
15
b100110000100 C
b10 Y
b100000 a
b100110100110 c
b100 Z
b1 E
b10 E
b111100000 f
b11110 b
b100110000100 /
b111111110 f
#780000
0!
05
#785000
1!
b110 2
1&
1:
15
b10 ?
b100000 B
b100110100110 C
b100 Y
b11110 a
b100111000110 c
1H
b1000 Z
b1 E
b0 f
b0 b
b110010 g
b100110100110 /
b100000 .
b10 +
b10111011100 k
b111100010 f
#790000
0!
05
#795000
1!
15
b1 ?
b11110 B
b100111000110 C
b1000 Y
b100001 a
b100111100100 c
b11010000100110 l
b1111111111100010 j
b0 E
b11001110010 k
b111011111 f
b0 g
b100111000110 /
b11110 .
b1 +
b0 k
#800000
0!
05
#805000
1!
b111 2
0&
0:
15
b0 ?
b100001 B
b100111100100 C
b11010000100110 D
b101000000101 c
b0 j
0H
b10 Z
b11010000100110 0
b100111100100 /
b100001 .
b0 +
#810000
0!
05
#815000
1!
15
b101000000101 C
b10 Y
b11111 a
b101000100110 c
b100 Z
b1 E
b10 E
b111100001 f
b11110 b
b101000000101 /
b111111111 f
#820000
0!
05
#825000
1!
b1000 2
1&
1:
15
b10 ?
b11111 B
b101000100110 C
b100 Y
b11101 a
b101001000101 c
1H
b1000 Z
b1 E
0i
b1 f
b1 e
b0 b
b110010 g
b101000100110 /
b11111 .
b10 +
b100 Z
b1000 Z
b10110101010 k
b0 e
b111100011 f
1i
b100 Z
b1000 Z
#830000
0!
05
#835000
1!
15
b1 ?
b11101 B
b101001000101 C
b1000 Y
b100000 a
b101001100010 c
b11100111010000 l
b1111111111100011 j
b0 E
b11001000000 k
b111100000 f
b0 g
b101001000101 /
b11101 .
b1 +
b0 k
#840000
0!
05
#845000
1!
b1001 2
0&
0:
15
b0 ?
b100000 B
b101001100010 C
b11100111010000 D
b101010000010 c
b0 j
0H
b10 Z
b11100111010000 0
b101001100010 /
b100000 .
b0 +
#850000
0!
05
#855000
1!
15
b101010000010 C
b10 Y
b11110 a
b101010100010 c
b100 Z
b1 E
b10 E
b111100010 f
b11110 b
b101010000010 /
b0 f
#860000
0!
05
#865000
1!
b1010 2
b0 2
1'
1;
15
b10 ?
b11110 B
b101010100010 C
b100 Y
b11100 a
b101011000000 c
1I
b1 E
0i
b10 f
b10 e
b0 b
b110010 g
b101010100010 /
b11110 .
b10 +
b10 Z
b10101111000 k
b0 e
b111100100 f
1i
b100 Z
#870000
0!
05
#875000
1!
15
b1 ?
b11100 B
b101011000000 C
b11111 a
b101011011100 c
b11111101001000 l
b1111111111100100 j
b11000001110 k
b111100001 f
b0 g
b101011000000 /
b11100 .
b1 +
b0 k
#880000
0!
05
#885000
1!
b1 2
0'
0;
15
b11111 B
b101011011100 C
b11111101001000 D
b101011111011 c
b1111111111000101 j
0I
b11111101001000 0
b101011011100 /
b11111 .
#890000
0!
05
#895000
1!
15
b101011111011 C
b101100011010 c
b1111111110100110 j
b101011111011 /
#900000
0!
05
#905000
1!
b10 2
1'
1;
15
b101100011010 C
b101100111001 c
b1111111110000111 j
1I
b101100011010 /
#910000
0!
05
#915000
1!
15
b101100111001 C
b101101011000 c
b1111111101101000 j
b101100111001 /
#920000
0!
05
#925000
1!
b11 2
0'
0;
15
b101101011000 C
b101101110111 c
b1111111101001001 j
0I
b101101011000 /
#930000
0!
05
#935000
1!
15
b101101110111 C
b101110010110 c
b1111111100101010 j
b101101110111 /
#940000
0!
05
#945000
1!
b100 2
1'
1;
15
b101110010110 C
b101110110101 c
b1111111100001011 j
1I
b101110010110 /
#950000
0!
05
#955000
1!
15
b101110110101 C
b101111010100 c
b1111111011101100 j
b101110110101 /
#960000
0!
05
#965000
1!
b101 2
0'
0;
15
b101111010100 C
b101111110011 c
b1111111011001101 j
0I
b101111010100 /
#970000
0!
05
#975000
1!
15
b101111110011 C
b110000010010 c
b1111111010101110 j
b101111110011 /
#980000
0!
05
#985000
1!
b110 2
1'
1;
15
b110000010010 C
b110000110001 c
b1111111010001111 j
1I
b110000010010 /
#990000
0!
05
#995000
1!
15
b110000110001 C
b110001010000 c
b1111111001110000 j
b110000110001 /
#1000000
0!
05
#1005000
1!
b111 2
0'
0;
15
b110001010000 C
b110001101111 c
b1111111001010001 j
0I
b110001010000 /
#1010000
0!
05
#1015000
1!
15
b110001101111 C
b110010001110 c
b1111111000110010 j
b110001101111 /
#1020000
0!
05
#1025000
1!
b1000 2
1'
1;
15
b110010001110 C
b110010101101 c
b1111111000010011 j
1I
b110010001110 /
#1030000
0!
05
#1035000
1!
15
b110010101101 C
b110011001100 c
b1111110111110100 j
b110010101101 /
#1040000
0!
05
#1045000
1!
b1001 2
0'
0;
15
b110011001100 C
b110011101011 c
b1111110111010101 j
0I
b110011001100 /
#1050000
0!
05
#1055000
1!
15
b110011101011 C
b110100001010 c
b1111110110110110 j
b110011101011 /
#1060000
0!
05
#1065000
1!
b1010 2
b0 2
1(
1<
15
b110100001010 C
b110100101001 c
b1111110110010111 j
1J
b110100001010 /
#1070000
0!
05
#1075000
1!
15
b110100101001 C
b110101001000 c
b1111110101111000 j
b110100101001 /
#1080000
0!
05
#1085000
1!
b1 2
0(
0<
15
b110101001000 C
b110101100111 c
b1111110101011001 j
0J
b110101001000 /
#1090000
0!
05
#1095000
1!
15
b110101100111 C
b110110000110 c
b1111110100111010 j
b110101100111 /
#1100000
0!
05
#1105000
1!
b10 2
1(
1<
15
b110110000110 C
b110110100101 c
b1111110100011011 j
1J
b110110000110 /
#1110000
0!
05
#1115000
1!
15
b110110100101 C
b110111000100 c
b1111110011111100 j
b110110100101 /
#1120000
0!
05
#1125000
1!
b11 2
0(
0<
15
b110111000100 C
b110111100011 c
b1111110011011101 j
0J
b110111000100 /
#1130000
0!
05
#1135000
1!
15
b110111100011 C
b111000000010 c
b1111110010111110 j
b110111100011 /
#1140000
0!
05
#1145000
1!
b100 2
1(
1<
15
b111000000010 C
b111000100001 c
b1111110010011111 j
1J
b111000000010 /
#1150000
0!
05
#1155000
1!
15
b111000100001 C
b111001000000 c
b1111110010000000 j
b111000100001 /
#1160000
0!
05
#1165000
1!
b101 2
0(
0<
15
b111001000000 C
b111001011111 c
b1111110001100001 j
0J
b111001000000 /
#1170000
0!
05
#1175000
1!
15
b111001011111 C
b111001111110 c
b1111110001000010 j
b111001011111 /
#1180000
0!
05
#1185000
1!
b110 2
1(
1<
15
b111001111110 C
b111010011101 c
b1111110000100011 j
1J
b111001111110 /
#1190000
0!
05
#1195000
1!
15
b111010011101 C
b111010111100 c
b1111110000000100 j
b111010011101 /
#1200000
0!
05
#1205000
1!
b111 2
0(
0<
15
b111010111100 C
b111011011011 c
b1111101111100101 j
0J
b111010111100 /
#1210000
0!
05
#1215000
1!
15
b111011011011 C
b111011111010 c
b1111101111000110 j
b111011011011 /
#1220000
0!
05
#1225000
1!
b1000 2
1(
1<
15
b111011111010 C
b111100011001 c
b1111101110100111 j
1J
b111011111010 /
#1230000
0!
05
#1235000
1!
15
b111100011001 C
b111100111000 c
b1111101110001000 j
b111100011001 /
#1240000
0!
05
#1245000
1!
b1001 2
0(
0<
15
b111100111000 C
b111101010111 c
b1111101101101001 j
0J
b111100111000 /
#1250000
0!
05
#1255000
1!
15
b111101010111 C
b111101110110 c
b1111101101001010 j
b111101010111 /
#1260000
0!
05
#1265000
1!
b1010 2
b0 2
1)
1=
15
b111101110110 C
b111110010101 c
b1111101100101011 j
1K
b10000000000 Z
b111101110110 /
#1270000
0!
05
#1275000
1!
15
b111110010101 C
b10000000000 Y
b111110110100 c
b1111101100001100 j
b0 E
b111110010101 /
#1280000
0!
05
#1285000
1!
b1 2
0)
0=
15
b0 ?
b111110110100 C
b111111010011 c
b0 j
0K
b111110110100 /
b0 +
#1290000
0!
05
#1295000
1!
15
b111111010011 C
b11101 a
b111111110010 c
b111100011 f
b111111010011 /
#1300000
0!
05
#1305000
1!
b10 2
1)
1=
15
b11101 B
b111111110010 C
b11011 a
b1000000001111 c
1K
b111100101 f
b111111110010 /
b11101 .
#1310000
0!
05
#1315000
1!
15
b11011 B
b1000000001111 C
b11001 a
b1000000101010 c
b111100111 f
b1000000001111 /
b11011 .
#1320000
0!
05
#1325000
1!
b11 2
0)
0=
15
b11001 B
b1000000101010 C
b10111 a
b1000001000011 c
0K
b111101001 f
b1000000101010 /
b11001 .
#1330000
0!
05
#1335000
1!
15
b10111 B
b1000001000011 C
b10101 a
b1000001011010 c
b111101011 f
b1000001000011 /
b10111 .
#1340000
0!
05
#1345000
1!
b100 2
1)
1=
15
b10101 B
b1000001011010 C
b10011 a
b1000001101111 c
1K
b111101101 f
b1000001011010 /
b10101 .
#1350000
0!
05
#1355000
1!
15
b10011 B
b1000001101111 C
b10001 a
b1000010000010 c
b111101111 f
b1000001101111 /
b10011 .
#1360000
0!
05
#1365000
1!
b101 2
0)
0=
15
b10001 B
b1000010000010 C
b1111 a
b1000010010011 c
0K
b111110001 f
b1000010000010 /
b10001 .
#1370000
0!
05
#1375000
1!
15
b1111 B
b1000010010011 C
b1101 a
b1000010100010 c
b111110011 f
b1000010010011 /
b1111 .
#1380000
0!
05
#1385000
1!
b110 2
1)
1=
15
b1101 B
b1000010100010 C
b1011 a
b1000010101111 c
1K
b111110101 f
b1000010100010 /
b1101 .
#1390000
0!
05
#1395000
1!
15
b1011 B
b1000010101111 C
b1001 a
b1000010111010 c
b111110111 f
b1000010101111 /
b1011 .
#1400000
0!
05
#1405000
1!
b111 2
0)
0=
15
b1001 B
b1000010111010 C
b111 a
b1000011000011 c
0K
b111111001 f
b1000010111010 /
b1001 .
#1410000
0!
05
#1415000
1!
15
b111 B
b1000011000011 C
b101 a
b1000011001010 c
b111111011 f
b1000011000011 /
b111 .
#1420000
0!
05
#1425000
1!
b1000 2
1)
1=
15
b101 B
b1000011001010 C
b11 a
b1000011001111 c
1K
b111111101 f
b1000011001010 /
b101 .
#1430000
0!
05
#1435000
1!
15
b11 B
b1000011001111 C
b1 a
b1000011010010 c
b111111111 f
b1000011001111 /
b11 .
#1440000
0!
05
#1445000
1!
b1001 2
0)
0=
15
b1 B
b1000011010010 C
b11111111 a
b1000011010011 c
0K
b100000001 f
b1000011010010 /
b1 .
#1450000
0!
05
#1455000
1!
15
b11111111 B
b1000011010011 C
b11111101 a
b1000111010010 c
b100000011 f
b1000011010011 /
b11111111 .
#1460000
0!
05
#1465000
1!
b1010 2
b0 2
15
b11111101 B
b1000111010010 C
b11111011 a
b1001011001111 c
b100000101 f
b1000111010010 /
b11111101 .
#1470000
0!
05
#1475000
1!
15
b11111011 B
b1001011001111 C
b11111001 a
b1001111001010 c
b100000111 f
b1001011001111 /
b11111011 .
#1480000
0!
05
#1485000
1!
15
b11111001 B
b1001111001010 C
b11110111 a
b1010011000011 c
b100001001 f
b1001111001010 /
b11111001 .
#1490000
0!
05
#1495000
1!
15
b11110111 B
b1010011000011 C
b11110101 a
b1010110111010 c
b100001011 f
b1010011000011 /
b11110111 .
#1500000
0!
05
#1505000
1!
15
b11110101 B
b1010110111010 C
b11110011 a
b1011010101111 c
b100001101 f
b1010110111010 /
b11110101 .
#1510000
0!
05
#1515000
1!
15
b11110011 B
b1011010101111 C
b11110001 a
b1011110100010 c
b100001111 f
b1011010101111 /
b11110011 .
#1520000
0!
05
#1525000
1!
15
b11110001 B
b1011110100010 C
b11101111 a
b1100010010011 c
b100010001 f
b1011110100010 /
b11110001 .
#1530000
0!
05
#1535000
1!
15
b11101111 B
b1100010010011 C
b11101101 a
b1100110000010 c
b100010011 f
b1100010010011 /
b11101111 .
#1540000
0!
05
#1545000
1!
15
b11101101 B
b1100110000010 C
b11101011 a
b1101001101111 c
b100010101 f
b1100110000010 /
b11101101 .
#1550000
0!
05
#1555000
1!
15
b11101011 B
b1101001101111 C
b11101001 a
b1101101011010 c
b100010111 f
b1101001101111 /
b11101011 .
#1560000
0!
05
#1565000
1!
b1 2
b1 *
b1 >
15
b11101001 B
b1101101011010 C
b11100111 a
b1110001000011 c
b1 L
b111100 d
b100011001 f
b1101101011010 /
b11101001 .
#1570000
0!
05
#1575000
1!
15
b11100111 B
b1110001000011 C
b11100101 a
b1110100101010 c
b100011011 f
b1110001000011 /
b11100111 .
#1580000
0!
05
#1585000
1!
15
b11100101 B
b1110100101010 C
b11100011 a
b1111000001111 c
b100011101 f
b1110100101010 /
b11100101 .
#1590000
0!
05
#1595000
1!
15
b11100011 B
b1111000001111 C
b11100001 a
b1111011110010 c
b100011111 f
b1111000001111 /
b11100011 .
#1600000
0!
05
#1605000
1!
15
b11100001 B
b1111011110010 C
b11011111 a
b1111111010011 c
b100100001 f
b1111011110010 /
b11100001 .
#1610000
0!
05
#1615000
1!
15
b11011111 B
b1111111010011 C
b11011101 a
b10000010110010 c
b100100011 f
b1111111010011 /
b11011111 .
#1620000
0!
05
#1625000
1!
15
b11011101 B
b10000010110010 C
b11011011 a
b10000110001111 c
b100100101 f
b10000010110010 /
b11011101 .
#1630000
0!
05
#1635000
1!
15
b11011011 B
b10000110001111 C
b11011001 a
b10001001101010 c
b100100111 f
b10000110001111 /
b11011011 .
#1640000
0!
05
#1645000
1!
15
b11011001 B
b10001001101010 C
b11010111 a
b10001101000011 c
b100101001 f
b10001001101010 /
b11011001 .
#1650000
0!
05
#1655000
1!
15
b11010111 B
b10001101000011 C
b11010101 a
b10010000011010 c
b100101011 f
b10001101000011 /
b11010111 .
#1660000
0!
05
#1665000
1!
b10 2
b10 *
b10 >
15
b11010101 B
b10010000011010 C
b11010011 a
b10010011101111 c
b10 L
b1100100 d
b100101101 f
b10010000011010 /
b11010101 .
#1670000
0!
05
#1675000
1!
15
b11010011 B
b10010011101111 C
b11010001 a
b10010111000010 c
b100101111 f
b10010011101111 /
b11010011 .
#1680000
0!
05
#1685000
1!
15
b11010001 B
b10010111000010 C
b11001111 a
b10011010010011 c
b100110001 f
b10010111000010 /
b11010001 .
#1690000
0!
05
#1695000
1!
15
b11001111 B
b10011010010011 C
b11001101 a
b10011101100010 c
b100110011 f
b10011010010011 /
b11001111 .
#1700000
0!
05
#1705000
1!
15
b11001101 B
b10011101100010 C
b11001011 a
b10100000101111 c
b100110101 f
b10011101100010 /
b11001101 .
#1710000
0!
05
#1715000
1!
15
b11001011 B
b10100000101111 C
b11001001 a
b10100011111010 c
b100110111 f
b10100000101111 /
b11001011 .
#1720000
0!
05
#1725000
1!
15
b11001001 B
b10100011111010 C
b11000111 a
b10100111000011 c
b100111001 f
b10100011111010 /
b11001001 .
#1730000
0!
05
#1735000
1!
15
b11000111 B
b10100111000011 C
b11000101 a
b10101010001010 c
b100111011 f
b10100111000011 /
b11000111 .
#1740000
0!
05
#1745000
1!
15
b11000101 B
b10101010001010 C
b11000011 a
b10101101001111 c
b100111101 f
b10101010001010 /
b11000101 .
#1750000
0!
05
